comparison	nb genes up-regulated	nb genes down-regulated
1	AskoHeat_stress_35._2h_vs_Control_25.	1421	904
2	AskoHeat_stress_40._2h_vs_Control_25.	5431	4639
3	AskoHeat_stress_45._2h_vs_Control_25.	4323	3876
4	AskoHeat_stress_vs_Control_25.	6127	2681
